Place,Name,Sex,BirthDate,Equipment,Division,BodyweightKg,WeightClassKg,Squat1Kg,Squat2Kg,Squat3Kg,Squat4Kg,Best3SquatKg,Bench1Kg,Bench2Kg,Bench3Kg,Bench4Kg,Best3BenchKg,Deadlift1Kg,Deadlift2Kg,Deadlift3Kg,Deadlift4Kg,Best3DeadliftKg,TotalKg,Event
1,Andrew Saunders,M,1967-07-29,Multi-ply,M-M4-E,98.7,100,,,,,,200,-215,-215,-227.5,200,,,,,,200,B
1,Annjanette Saunders,F,1969-12-01,Wraps,F-M3,67.15,67.5,150,-160,-160,,150,70,80,-85,,80,160,170,-180,,170,400,SBD
1,Ash Barbour,M,1997-09-30,Raw,M-O,137.5,140,265,287.5,-300,,287.5,170,180,-185,,180,220,240,,,240,707.5,SBD
1,Charlie Milnes,M,1999-03-06,Wraps,M-O,108.3,110,300,-325,332.5,,332.5,190,200,207.5,,207.5,290,315,327.5,,327.5,867.5,SBD
2,Dan Carter #4,M,1990-06-09,Wraps,M-O,79.9,82.5,-155,155,165,,165,105,115,120,,120,175,185,190,,190,475,SBD
1,Daniel Weeks,M,1997-11-07,Wraps,M-O,65.25,67.5,200,210,-215,,210,115,-122.5,-125,,115,200,210,-217.5,,210,535,SBD
1,Danny Stoyles,M,1982-11-14,Raw,M-M1-S,81.3,82.5,180,190,200,,200,100,107.5,-115.5,,107.5,215,235,250,,250,557.5,SBD
1,Dhaivat Sadhu,M,1987-10-27,Raw,M-O-S,99.1,100,225,242.5,247.5,,247.5,150,157.5,162.5,,162.5,265,272.5,282.5,290,282.5,692.5,SBD
1,Dylan Howe,M,2001-06-14,Raw,M-J-S,108.95,110,200,210,220,,220,125,132.5,140,,140,260,280,-300,,280,640,SBD
5,Dylan Mortimer,M,1995-07-15,Wraps,M-O,101.25,110,-165,-165,165,,165,85,-92.5,-92.5,,85,185,195,202.5,,202.5,452.5,SBD
1,Emily Blastock,F,1992-12-15,Raw,F-O-S,66.2,67.5,130,137.5,-142.5,,137.5,67.5,-72.5,-72.5,,67.5,150,160,-167.5,,160,365,SBD
1,Endaf Phillips,M,1972-04-30,Multi-ply,M-M3-E,89.7,90,,,,,,190,200,-210,,200,,,,,,200,B
1,Gemma Lucas,F,1982-09-08,Raw,F-M1-S,77.7,82.5,130,137.5,-145,,137.5,55,60,62.5,65,62.5,150,160,-165,,160,360,SBD
1,George Kolar,M,2000-10-30,Wraps,M-J,126.1,140,340,-375,375,-400,375,200,215,227.5,,227.5,-300,325,340,,340,942.5,SBD
1,Graham Dowers,M,1964-04-02,Wraps,M-M4,69.95,75,170,-180,-190,,170,120,130,-135,,130,160,180,190,,190,490,SBD
1,Hugh Haines,M,1982-11-21,Raw,M-O,127.35,140,,,,,,170,180,182.5,,182.5,220,250,260,,260,442.5,BD
4,Jack Hawkins #1,M,1994-02-10,Wraps,M-O,108.5,110,210,-225,-230,,210,120,130,-132.5,,130,200,215,-230,,215,555,SBD
DQ,James Cox #1,M,1979-12-09,Multi-ply,M-M1-E,107.3,110,-265,-285,-285,,,,,,,,,,,,,,S
2,James Willment,M,1989-03-01,Raw,M-O-S,97.55,100,220,240,247.5,250.5,247.5,120,127.5,132.5,,132.5,220,235,245,,245,625,SBD
1,Jordan Thomas #8,M,2001-09-17,Wraps,M-J,97.1,100,225,250,280,,280,145,155,-165,,155,220,242.5,260,,260,695,SBD
1,Kalvis Birze,M,1998-05-02,Raw,M-O-S,81.45,82.5,220,240,260,,260,142.5,152.5,157.5,,157.5,270,290,302.5,307.5,302.5,720,SBD
1,Karolina Piwonska,F,1989-06-16,Raw,F-O-S,89.2,90,170,182.5,190,,190,90,100,105,,105,190,205,-210,,205,500,SBD
1,Katie Amor,F,1999-10-01,Wraps,F-O,69.15,75,135,-155,-155,,135,60,67.5,70,,70,140,160,-170,,160,365,SBD
1,Katy Smeathers,F,1980-01-06,Raw,F-M1-S,67.8,75,115,122.5,-127.5,,122.5,62.5,67.5,-70,,67.5,145,155,160,,160,350,SBD
1,Keith Evans #1,M,1978-03-04,Raw,M-M2-S,104.15,110,200,210,230,,230,160,165,170,,170,220,240,250,,250,650,SBD
1,Kerry Howells,F,1971-05-08,Raw,F-M3-S,100.7,110,130,137.5,-147.5,,137.5,82.5,87.5,-92.5,,87.5,162.5,172.5,-177.5,,172.5,397.5,SBD
1,Kieran Chambers,M,1997-10-30,Raw,M-O-S,108,110,185,200,-210,,200,130,-137.5,-137.5,,130,230,240,,,240,570,SBD
1,Liam Backhurst,M,2008-04-15,Wraps,M-T1,62.7,67.5,110,120,125,,125,85,90,-95,95,90,120,130,140,,140,355,SBD
1,Liam Bloomer,M,1999-09-27,Raw,M-O-S,73.8,75,190,-197.5,-197.5,,190,110,117.5,-125,,117.5,215,227.5,240,,240,547.5,SBD
1,Lukas Jusko,M,2001-11-07,Wraps,M-J,108.3,110,-300,300,-320,,300,145,152.5,-157.5,,152.5,265,280,-290,,280,732.5,SBD
1,Luke Litchfield,M,1986-04-25,Raw,M-O,101.5,110,,,,,,165,182.5,-190,,182.5,,,,,,182.5,B
3,Marc Barnes,M,1994-11-10,Wraps,M-O,108.2,110,280,,,,280,150,165,-180,,165,275,290,300,,300,745,SBD
1,Mark Woodruff,M,1978-09-23,Raw,M-M2,136.7,140,,,,,,,,,,,227.5,250,-272.5,,250,250,D
1,Noris Gotfridsons,M,1993-07-31,Wraps,M-O,89,90,270,300,310,,310,170,185,195,203.5,195,250,270,280,,280,785,SBD
1,Paul Collins,M,1971-07-31,Wraps,M-M3,102.2,110,170,,,,170,120,125,-130,,125,240,245,-250,,245,540,SBD
1,Paul Henry #2,M,1987-03-21,Raw,M-O-S,89.9,90,155,160,165,,165,120,125,-130,,125,185,195,205,,205,495,SBD
2,Philip Devlin,M,1992-08-30,Wraps,M-O,105.15,110,240,-250,260,,260,187.5,200,,,200,287.5,302.5,-315,,302.5,762.5,SBD
1,Rhian Cooling,F,1982-03-13,Raw,F-M1-S,127.05,110+,125,132.5,140,,140,50,55,-57.5,,55,140,150,160,,160,355,SBD
1,Robert Graham #1,M,1965-06-15,Multi-ply,M-M4-E,98.8,100,240,260,-280,,260,160,180,192.5,,192.5,220,235,-240,,235,687.5,SBD
1,Sammie England,F,1984-03-31,Wraps,F-M1,67.35,67.5,142.5,147.5,-152.5,,147.5,72.5,77.5,80,,80,147.5,155,162.5,,162.5,390,SBD
1,Simon Williams #1,M,1993-12-02,Wraps,M-O,76.2,82.5,295,312.5,-320,,312.5,155,162.5,167.5,,167.5,287.5,302.5,313,,313,793,SBD
1,Siobhan Packer,F,1998-03-14,Raw,F-O-S,107.9,110,-115,115,125,,125,70,77.5,85,,85,130,140,-155,,140,350,SBD
1,Sophie Castledine,F,1999-08-14,Raw,F-O-S,99,100,120,130,-135,,130,50,55,-57.5,,55,130,140,-147.5,,140,325,SBD
3,Stephen May,M,1997-01-14,Raw,M-O-S,92.3,100,165,-170,-170,,165,110,,,,110,185,,,,185,460,SBD
