Division,WeightClassKg,Place,Name,Team,BodyweightKg,Best3SquatKg,Best3BenchKg,Best3DeadliftKg,TotalKg,Equipment,Event,Sex,BirthDate
Girls,44.23,1,Riya Sebastian,Alvin Shadow Creek,42,61.23,27.22,83.91,172.37,Unlimited,SBD,F,
Girls,44.23,2,D'Shai Cooper,Hitchcock,40.37,52.16,31.75,86.18,170.1,Unlimited,SBD,F,
Girls,47.85,1,Melanie Davis,Hitchcock,47.08,68.04,38.56,92.99,199.58,Unlimited,SBD,F,
Girls,47.85,2,Aliyah Perez,Hitchcock,46.9,68.04,34.02,74.84,176.9,Unlimited,SBD,F,
Girls,51.94,1,Kelly Huynh,Manvel,50.35,117.93,65.77,122.47,306.17,Unlimited,SBD,F,
Girls,51.94,2,Sylvia Srey,Alvin Iowa Colony,49.26,81.65,29.48,95.25,206.38,Unlimited,SBD,F,
Girls,51.94,3,Gabby Guarado,Hitchcock,50.17,79.38,38.56,83.91,201.85,Unlimited,SBD,F,
Girls,51.94,4,Shyiana Gongora,Hitchcock,49.8,61.23,34.02,86.18,181.44,Unlimited,SBD,F,
Girls,51.94,5,Aries Williams,Beaumont United,51.44,63.5,31.75,81.65,176.9,Unlimited,SBD,F,
Girls,51.94,6,Amy Flores,Hitchcock,51.07,72.57,34.02,68.04,174.63,Unlimited,SBD,F,
Girls,51.94,DQ,Dlyia Smith,Hitchcock,48.44,,,,,Unlimited,SBD,F,
Girls,56.02,1,Nehaa Varghese,Alvin Shadow Creek,52.98,86.18,36.29,88.45,210.92,Unlimited,SBD,F,
Girls,56.02,2,Trinity De Luna,Alvin Iowa Colony,54.52,77.11,31.75,83.91,192.78,Unlimited,SBD,F,
Girls,60.1,1,Orianna Harper,Alvin Shadow Creek,59.69,104.33,56.7,131.54,292.57,Unlimited,SBD,F,
Girls,60.1,2,Liz Lira,Alvin Iowa Colony,58.42,92.99,36.29,97.52,226.8,Unlimited,SBD,F,
Girls,60.1,3,Madeline Husbands,Alvin Shadow Creek,58.42,72.57,38.56,90.72,201.85,Unlimited,SBD,F,
Girls,60.1,DQ,Zoey Bryan,Hitchcock,56.34,102.06,,,,Unlimited,SBD,F,
Girls,60.1,DQ,Imani Johnson,Beaumont United,60.06,74.84,,,,Unlimited,SBD,F,
Girls,67.36,1,Ronnise Chase,Alvin Iowa Colony,67.31,117.93,52.16,117.93,288.03,Unlimited,SBD,F,
Girls,67.36,2,Marion Brently,Alvin Shadow Creek,63.96,88.45,56.7,104.33,249.48,Unlimited,SBD,F,
Girls,67.36,3,Camryn Reed,Stafford,62.23,97.52,52.16,95.25,244.94,Unlimited,SBD,F,
Girls,67.36,4,Tashiya Smothers,Beaumont United,65.5,88.45,40.82,97.52,226.8,Unlimited,SBD,F,
Girls,67.36,5,Michelle Mohri,Alvin Shadow Creek,65.86,74.84,34.02,106.59,215.46,Unlimited,SBD,F,
Girls,67.36,6,Edna Urrutia,Alvin Iowa Colony,65.77,77.11,31.75,95.25,204.12,Unlimited,SBD,F,
Girls,75.07,1,Alondra Mejia,Manvel,68.86,136.08,83.91,131.54,351.53,Unlimited,SBD,F,
Girls,75.07,2,Aisha Howard,Stafford,73.75,108.86,65.77,136.08,310.71,Unlimited,SBD,F,
Girls,75.07,3,Payton Goodman,Alvin Shadow Creek,73.03,106.59,47.63,127.01,281.23,Unlimited,SBD,F,
Girls,75.07,4,Isis Ventress,Beaumont United,74.39,90.72,56.7,131.54,278.96,Unlimited,SBD,F,
Girls,75.07,5,Angela Cordero,Alvin Iowa Colony,73.75,102.06,40.82,113.4,256.28,Unlimited,SBD,F,
Girls,82.33,1,Abriyana Barboza,Manvel,81.1,124.74,77.11,131.54,333.39,Unlimited,SBD,F,
Girls,82.33,2,Jaycie Miller,Manvel,80.74,124.74,81.65,124.74,331.12,Unlimited,SBD,F,
Girls,82.33,3,Ari Polidore,Beaumont United,82.28,115.67,54.43,129.27,299.37,Unlimited,SBD,F,
Girls,82.33,4,Jaiden Pool,Hitchcock,82.28,102.06,61.23,108.86,272.16,Unlimited,SBD,F,
Girls,82.33,5,Abigail Mendoza,Stafford,80.92,102.06,49.9,108.86,260.82,Unlimited,SBD,F,
Girls,82.33,6,Roenne Jae Lavarez,Alvin Shadow Creek,81.56,99.79,47.63,111.13,258.55,Unlimited,SBD,F,
Girls,82.33,7,Rayonna McDade,Hitchcock,82.28,99.79,56.7,102.06,258.55,Unlimited,SBD,F,
Girls,82.33,8,Zakhira Guillory,Beaumont United,80.38,58.97,31.75,88.45,179.17,Unlimited,SBD,F,
Girls,82.33,DQ,Melanie Morales,Alvin Shadow Creek,81.92,124.74,,127.01,,Unlimited,SBD,F,
Girls,90.04,1,L Ashya Phillpis,Manvel,89.81,127.01,77.11,127.01,331.12,Unlimited,SBD,F,
Girls,90.04,2,Madysen Williams,Manvel,86.73,129.27,74.84,124.74,328.85,Unlimited,SBD,F,
Girls,90.04,3,Annie Vong,Alvin Iowa Colony,87,122.47,56.7,117.93,297.1,Unlimited,SBD,F,
Girls,90.04,4,Angelina Hovanec,Alvin Iowa Colony,83.28,108.86,43.09,111.13,263.08,Unlimited,SBD,F,
Girls,90.04,5,Andrea Salinas,Hitchcock,83.46,99.79,58.97,102.06,260.82,Unlimited,SBD,F,
Girls,90.04,6,Kaelyn Parham,Hitchcock,87.72,79.38,40.82,97.52,217.72,Unlimited,SBD,F,
Girls,90.04,DQ,Christina Reed,Beaumont United,83.01,97.52,,102.06,,Unlimited,SBD,F,
Girls,100.02,1,Marcia Orbro,Beaumont United,92.62,140.61,56.7,142.88,340.19,Unlimited,SBD,F,
Girls,100.02,2,Valerie Mendez,Alvin Shadow Creek,99.97,86.18,29.48,92.99,208.65,Unlimited,SBD,F,
Girls,100.02,3,Rayven Hawthorne,Beaumont United,90.45,86.18,34.02,79.38,199.58,Unlimited,SBD,F,
Girls,110,1,Jasmine King,Hitchcock,109.23,174.63,77.11,149.69,401.43,Unlimited,SBD,F,
Girls,110,2,Ceerano Teno,Beaumont United,102.42,83.91,54.43,92.99,231.33,Unlimited,SBD,F,
Girls,110+,1,Jayla Solomon,Alvin Shadow Creek,112.13,183.7,79.38,165.56,428.64,Unlimited,SBD,F,
Girls,110+,2,Mykalah Pattum,Manvel,111.31,149.69,92.99,151.95,394.63,Unlimited,SBD,F,
Girls,110+,3,Krysta Bolton,Beaumont United,133.63,97.52,34.02,102.06,233.6,Unlimited,SBD,F,
