Division,WeightClassKg,Place,Name,Team,BodyweightKg,Best3SquatKg,Best3BenchKg,Best3DeadliftKg,TotalKg,Equipment,Event,Sex,BirthDate
Boys,51.71,1,Mark Garcia,Pearsall,51.12,142.88,88.45,140.61,371.95,Unlimited,SBD,M,
Boys,51.71,2,Kason Kallies,San Antonio Wagner,51.71,108.86,61.23,122.47,292.57,Unlimited,SBD,M,
Boys,51.71,3,Antoine Keyes,San Antonio Wagner,51.71,68.04,52.16,113.4,233.6,Unlimited,SBD,M,
Boys,51.71,DQ,Marc Ramirez,Pearsall,50.94,,,,,Unlimited,SBD,M,
Boys,55.79,1,Erik Mendoza,San Antonio Cole,55.47,174.63,111.13,206.38,492.15,Unlimited,SBD,M,
Boys,55.79,2,Noah Ramirez,San Antonio Southside,55.66,156.49,88.45,149.69,394.63,Unlimited,SBD,M,
Boys,55.79,3,Aidan Ayala,San Antonio Cole,55.07,136.08,72.57,149.69,358.34,Unlimited,SBD,M,
Boys,55.79,4,Dy'reon Monday,San Antonio Wagner,53.98,113.4,65.77,151.95,331.12,Unlimited,SBD,M,
Boys,55.79,5,Gavyn Baldera,Comal Canyon Lake,51.89,106.59,77.11,136.08,319.78,Unlimited,SBD,M,
Boys,55.79,6,Sebastian Castellanos,San Antonio Wagner,55.79,111.13,72.57,136.08,319.78,Unlimited,SBD,M,
Boys,55.79,7,Derek Rodriguez,Pearsall,55.66,120.2,68.04,127.01,315.25,Unlimited,SBD,M,
Boys,55.79,8,Vaunray Ramsey,San Antonio Wagner,54.79,104.33,61.23,142.88,308.44,Unlimited,SBD,M,
Boys,59.87,1,Avery Crouch,San Antonio Veterans Memorial,59.78,249.48,122.47,224.53,596.47,Unlimited,SBD,M,
Boys,59.87,2,Cole Coffee,Comal Canyon Lake,59.51,158.76,97.52,185.97,442.25,Unlimited,SBD,M,
Boys,59.87,3,Jeffrey Rodriguez,San Antonio Southside,59.1,165.56,104.33,165.56,435.45,Unlimited,SBD,M,
Boys,59.87,4,Luke Martinez,San Antonio Southside,58.65,158.76,88.45,165.56,412.77,Unlimited,SBD,M,
Boys,59.87,5,Silas Inclan,San Antonio Southside,56.7,161.03,90.72,158.76,410.5,Unlimited,SBD,M,
Boys,59.87,6,Elroy Valero,San Antonio Southside,59.38,170.1,83.91,154.22,408.23,Unlimited,SBD,M,
Boys,59.87,7,Vincent Privitera Pacheco,San Antonio Cole,59.78,151.95,86.18,158.76,396.89,Unlimited,SBD,M,
Boys,59.87,8,Pete De Leon,San Antonio Cole,56.47,138.35,77.11,151.95,367.41,Unlimited,SBD,M,
Boys,59.87,9,Jaylon Jones,San Antonio Wagner,56.34,142.88,61.23,147.42,351.53,Unlimited,SBD,M,
Boys,59.87,10,Blayne Carroll,Pettus,59.15,124.74,92.99,122.47,340.19,Unlimited,SBD,M,
Boys,59.87,11,Ryan Tobiason,San Antonio Cole,59.87,115.67,79.38,120.2,315.25,Unlimited,SBD,M,
Boys,59.87,12,Brandon Godwin,Yoakum,57.38,81.65,58.97,122.47,263.08,Unlimited,SBD,M,
Boys,59.87,DQ,Jacob Tuckness,Comal Canyon Lake,59.87,145.15,,,,Unlimited,SBD,M,
Boys,59.87,DQ,Dylan Riggs,San Antonio Veterans Memorial,59.87,,,,,Unlimited,SBD,M,
Boys,59.87,DQ,Rey Solla,San Antonio Cole,59.28,,,,,Unlimited,SBD,M,
Boys,67.13,1,Brian Guillen,San Antonio Southside,67,197.31,140.61,183.7,521.63,Unlimited,SBD,M,
Boys,67.13,2,Damon Morales,Pleasanton,66.72,206.38,115.67,188.24,510.29,Unlimited,SBD,M,
Boys,67.13,3,Josiah Garcia,San Antonio Southside,65.86,172.37,104.33,199.58,476.27,Unlimited,SBD,M,
Boys,67.13,4,Kaden Lewis,Comal Canyon Lake,65.5,158.76,127.01,183.7,469.47,Unlimited,SBD,M,
Boys,67.13,5,Kathan Cavazos,Pleasanton,65.91,183.7,122.47,156.49,462.66,Unlimited,SBD,M,
Boys,67.13,6,Yeil Worthy,San Antonio Veterans Memorial,62.1,172.37,90.72,172.37,435.45,Unlimited,SBD,M,
Boys,67.13,7,Melisio Garcia,Pettus,65,149.69,95.25,190.51,435.45,Unlimited,SBD,M,
Boys,67.13,8,Bryce Rey,Pettus,61.55,142.88,83.91,154.22,381.02,Unlimited,SBD,M,
Boys,67.13,9,Cedric Sanchez,Hondo,62.91,124.74,88.45,138.35,351.53,Unlimited,SBD,M,
Boys,67.13,10,Michael Clinton,San Antonio Cole,65.73,120.2,74.84,124.74,319.78,Unlimited,SBD,M,
Boys,67.13,11,Ayden Manzo,Comal Canyon Lake,60.69,120.2,65.77,111.13,297.1,Unlimited,SBD,M,
Boys,67.13,12,Zayden Morin,Hondo,61.37,92.99,58.97,90.72,242.67,Unlimited,SBD,M,
Boys,67.13,DQ,Israel Chavez,San Antonio Cole,60.78,183.7,104.33,,,Unlimited,SBD,M,
Boys,74.84,1,Kingston Martinez,Pearsall,74.84,272.16,158.76,244.94,675.85,Unlimited,SBD,M,
Boys,74.84,2,Mathew Elson,Comal Canyon Lake,74.43,258.55,163.29,242.67,664.51,Unlimited,SBD,M,
Boys,74.84,3,Rodney Staley,San Antonio Wagner,73.12,192.78,104.33,192.78,489.88,Unlimited,SBD,M,
Boys,74.84,4,Colby Jendrzey,Yoakum,74.39,165.56,133.81,165.56,464.93,Unlimited,SBD,M,
Boys,74.84,5,Goliath Gonzalez,Pearsall,70.94,183.7,106.59,172.37,462.66,Unlimited,SBD,M,
Boys,74.84,6,Israel Gamez,Pettus,73.62,170.1,122.47,165.56,458.13,Unlimited,SBD,M,
Boys,74.84,7,Anthony Munoz,Poteet,70.99,181.44,113.4,158.76,453.59,Unlimited,SBD,M,
Boys,74.84,8,Evan Buenrostro,San Antonio Veterans Memorial,69.67,172.37,79.38,199.58,451.32,Unlimited,SBD,M,
Boys,74.84,9,Hunter Avila,Comal Davenport,71.44,158.76,92.99,183.7,435.45,Unlimited,SBD,M,
Boys,74.84,10,Caleb Armstrong,Comal Canyon Lake,71.44,149.69,122.47,163.29,435.45,Unlimited,SBD,M,
Boys,74.84,11,Matthew Hernandez,Pettus,70.03,174.63,102.06,151.95,428.64,Unlimited,SBD,M,
Boys,74.84,12,Ephraim Gomez,Hondo,72.76,163.29,104.33,149.69,417.3,Unlimited,SBD,M,
Boys,74.84,13,Andres Garcia,Comal Davenport,71.35,133.81,83.91,151.95,369.68,Unlimited,SBD,M,
Boys,74.84,14,Marco Vasquez,San Antonio Veterans Memorial,72.57,108.86,77.11,149.69,335.66,Unlimited,SBD,M,
Boys,74.84,DQ,Julian Buenrostro,San Antonio Veterans Memorial,71.03,172.37,,,,Unlimited,SBD,M,
Boys,82.1,1,Mathew Torralba,Comal Canyon Lake,77.75,195.04,115.67,208.65,519.36,Unlimited,SBD,M,
Boys,82.1,2,JoAnthony Jasso,Pearsall,81.1,199.58,99.79,201.85,501.22,Unlimited,SBD,M,
Boys,82.1,3,Aaron Davis,San Antonio Wagner,77.79,201.85,106.59,190.51,498.95,Unlimited,SBD,M,
Boys,82.1,4,Angel Perez,Seguin,77.25,195.04,117.93,165.56,478.54,Unlimited,SBD,M,
Boys,82.1,5,Gabriel Gomez,Yoakum,80.88,174.63,102.06,199.58,476.27,Unlimited,SBD,M,
Boys,82.1,6,Zachary Hanna,San Antonio Cole,82.1,170.1,90.72,183.7,444.52,Unlimited,SBD,M,
Boys,82.1,7,Jeremiah Guevara,Hondo,76.88,163.29,104.33,165.56,433.18,Unlimited,SBD,M,
Boys,82.1,8,Josiah Gonzales,Comal Davenport,80.24,170.1,106.59,156.49,433.18,Unlimited,SBD,M,
Boys,82.1,9,Christian Cobb,San Antonio Cole,79.29,147.42,99.79,170.1,417.3,Unlimited,SBD,M,
Boys,82.1,10,Rodrigo Urquieta,San Antonio Cole,79.11,156.49,97.52,158.76,412.77,Unlimited,SBD,M,
Boys,82.1,11,Yony Popchoc,Seguin,79.33,151.95,104.33,154.22,410.5,Unlimited,SBD,M,
Boys,82.1,12,Nick Martinez,Comal Canyon Lake,81.74,136.08,90.72,165.56,392.36,Unlimited,SBD,M,
Boys,82.1,13,Juan Aguirre,Pettus,79.38,136.08,92.99,133.81,362.87,Unlimited,SBD,M,
Boys,89.81,1,Richard DeLaGarza,San Antonio Southside,83.87,244.94,172.37,251.74,669.05,Unlimited,SBD,M,
Boys,89.81,2,Jose Lopez,Pleasanton,88.59,240.4,161.03,208.65,610.08,Unlimited,SBD,M,
Boys,89.81,3,Samuel Lopez,San Antonio Cole,86.23,222.26,138.35,238.14,598.74,Unlimited,SBD,M,
Boys,89.81,4,Wyatt Roberts,Comal Canyon Lake,88.5,219.99,147.42,208.65,576.06,Unlimited,SBD,M,
Boys,89.81,5,Dallas Harrell,San Antonio Veterans Memorial,88.54,231.33,131.54,213.19,576.06,Unlimited,SBD,M,
Boys,89.81,6,Gage Jones,Comal Canyon Lake,87.77,183.7,120.2,206.38,510.29,Unlimited,SBD,M,
Boys,89.81,7,Micah Heneke,San Antonio Southside,84.69,219.99,129.27,151.95,501.22,Unlimited,SBD,M,
Boys,89.81,8,Tyler Drake,San Antonio Veterans Memorial,89.68,190.51,117.93,192.78,501.22,Unlimited,SBD,M,
Boys,89.81,9,Markus Arvidson,Comal Davenport,89.72,170.1,104.33,167.83,442.25,Unlimited,SBD,M,
Boys,89.81,10,Sean Velasquez,San Antonio Veterans Memorial,88.13,183.7,86.18,167.83,437.72,Unlimited,SBD,M,
Boys,89.81,11,Mikey Irving,San Antonio Veterans Memorial,85.5,183.7,83.91,165.56,433.18,Unlimited,SBD,M,
Boys,89.81,12,Nathaniel Skau,Pettus,85.18,136.08,95.25,179.17,410.5,Unlimited,SBD,M,
Boys,89.81,13,Jayden Gonzales,Yoakum,89.49,154.22,111.13,142.88,408.23,Unlimited,SBD,M,
Boys,89.81,14,Lyston Blanks,Hondo,85.87,154.22,79.38,167.83,401.43,Unlimited,SBD,M,
Boys,89.81,15,Joel Gomez,Yoakum,87.18,142.88,83.91,156.49,383.29,Unlimited,SBD,M,
Boys,89.81,16,Charellez Maxie,Hondo,86.32,136.08,72.57,124.74,333.39,Unlimited,SBD,M,
Boys,89.81,17,Spicer Sigman,Hondo,88.09,115.67,92.99,124.74,333.39,Unlimited,SBD,M,
Boys,89.81,18,Emanual Thomas,San Antonio Cole,82.83,99.79,88.45,142.88,331.12,Unlimited,SBD,M,
Boys,89.81,19,Ben Musquiz,Hondo,85.82,102.06,61.23,104.33,267.62,Unlimited,SBD,M,
Boys,89.81,DQ,Jack Meyer,Yoakum,86.82,,,,,Unlimited,SBD,M,
Boys,89.81,DQ,Chase Howell,San Antonio Cole,88.31,210.92,,,,Unlimited,SBD,M,
Boys,89.81,DQ,Seth Dunn,Poteet,89.81,226.8,138.35,,,Unlimited,SBD,M,
Boys,99.79,1,Anthony Rodriguez,Comal Davenport,98.47,267.62,167.83,249.48,684.92,Unlimited,SBD,M,
Boys,99.79,2,Alec Arguijo,Poteet,92.76,233.6,127.01,240.4,601.01,Unlimited,SBD,M,
Boys,99.79,3,Elijah Cantu,San Antonio Southside,98.79,217.72,163.29,172.37,553.38,Unlimited,SBD,M,
Boys,99.79,4,Joaquin Varela,Yoakum,97.98,179.17,115.67,183.7,478.54,Unlimited,SBD,M,
Boys,99.79,5,Ethan Acosta,Comal Davenport,99.79,188.24,106.59,170.1,464.93,Unlimited,SBD,M,
Boys,99.79,6,Divan Hernandez,Comal Canyon Lake,93.98,161.03,88.45,170.1,419.57,Unlimited,SBD,M,
Boys,99.79,7,Ryan Aaron Rios,San Antonio Cole,93.53,149.69,111.13,145.15,405.97,Unlimited,SBD,M,
Boys,99.79,8,Jerry Llanas,Yoakum,93.12,138.35,102.06,145.15,385.55,Unlimited,SBD,M,
Boys,99.79,9,Vaden Mcneill,San Antonio Cole,94.35,61.23,124.74,199.58,385.55,Unlimited,SBD,M,
Boys,99.79,10,Jaxson Morton,San Antonio Veterans Memorial,97.84,165.56,70.31,142.88,378.75,Unlimited,SBD,M,
Boys,99.79,DQ,Diego Quintero,Seguin,93.85,183.7,120.2,,,Unlimited,SBD,M,
Boys,99.79,DQ,Jared Ramirez,Yoakum,98.88,,,,,Unlimited,SBD,M,
Boys,109.77,1,Sebastian Aguilar,Pleasanton,109.27,285.76,156.49,272.16,714.41,Unlimited,SBD,M,
Boys,109.77,2,Everett Adams,Hondo,102.92,233.6,142.88,224.53,601.01,Unlimited,SBD,M,
Boys,109.77,3,Azario Brooks,San Antonio Wagner,106.87,210.92,142.88,217.72,571.53,Unlimited,SBD,M,
Boys,109.77,4,Dramell Lamar,San Antonio Antonian College Preparatory H.S.,109.23,206.38,142.88,215.46,564.72,Unlimited,SBD,M,
Boys,109.77,5,Joseph Ramirez,Seguin,104.46,226.8,147.42,183.7,557.92,Unlimited,SBD,M,
Boys,109.77,6,Emiliano Prieto,Comal Davenport,100.33,210.92,129.27,206.38,546.58,Unlimited,SBD,M,
Boys,109.77,7,Mark Hernandez,Hondo,105.41,142.88,120.2,151.95,415.04,Unlimited,SBD,M,
Boys,109.77,8,Jeremiah Torres,Pearsall,101.06,172.37,83.91,154.22,410.5,Unlimited,SBD,M,
Boys,109.77,9,Austin Perez,Comal Davenport,100.65,113.4,86.18,170.1,369.68,Unlimited,SBD,M,
Boys,109.77,10,William Hurd,Comal Davenport,105.96,138.35,79.38,149.69,367.41,Unlimited,SBD,M,
Boys,124.74,1,Diego Valdez,Pleasanton,123.92,276.69,208.65,249.48,734.82,Unlimited,SBD,M,
Boys,124.74,2,Jaden Perez,San Antonio Antonian College Preparatory H.S.,122.56,260.82,192.78,244.94,698.53,Unlimited,SBD,M,
Boys,124.74,3,Walter Smart,Pearsall,124.19,258.55,185.97,219.99,664.51,Unlimited,SBD,M,
Boys,124.74,4,Markos Garcia,San Antonio Southside,117.44,240.4,149.69,217.72,607.81,Unlimited,SBD,M,
Boys,124.74,5,Terrell August,San Antonio Wagner,121.93,226.8,170.1,208.65,605.55,Unlimited,SBD,M,
Boys,124.74,6,Carter Dunn,Seguin,113.26,233.6,147.42,197.31,578.33,Unlimited,SBD,M,
Boys,124.74,7,Stanley Stanukinos,Hondo,119.52,217.72,136.08,208.65,562.45,Unlimited,SBD,M,
Boys,124.74,8,Lucean Boiteau,Comal Davenport,114.26,215.46,124.74,215.46,555.65,Unlimited,SBD,M,
Boys,124.74,9,Chance Hollub,Seguin,115.03,199.58,149.69,183.7,532.97,Unlimited,SBD,M,
Boys,124.74,10,Angel Avila,San Antonio Wagner,123.24,195.04,115.67,174.63,485.34,Unlimited,SBD,M,
Boys,124.74,DQ,Frankie Medina,Seguin,118.61,183.7,,,,Unlimited,SBD,M,
Boys,124.74,DQ,River Bergman,Yoakum,120.66,,,,,Unlimited,SBD,M,
Boys,139.71,1,Hunter Gonzalez,Pearsall,125.19,254.01,154.22,183.7,591.94,Unlimited,SBD,M,
Boys,139.71,2,Daniel Goza- Gonzalez,Pettus,134.44,258.55,117.93,215.46,591.94,Unlimited,SBD,M,
Boys,139.71,3,Luigi Tirado,San Antonio Southside,139.71,204.12,127.01,188.24,519.36,Unlimited,SBD,M,
Boys,139.71,4,La' Troy Bradford,San Antonio Wagner,137.12,190.51,104.33,190.51,485.34,Unlimited,SBD,M,
Boys,139.71,5,Gilbert Navarrete,San Antonio Antonian College Preparatory H.S.,126.14,92.99,86.18,124.74,303.91,Unlimited,SBD,M,
Boys,139.71,DQ,James Stevens,Comal Canyon Lake,132.18,197.31,,,,Unlimited,SBD,M,
Boys,139.71+,1,Cooper Molitor,Hondo,161.71,272.16,165.56,226.8,664.51,Unlimited,SBD,M,
Boys,139.71+,2,Jerry Allen,San Antonio Wagner,156.76,249.48,147.42,174.63,571.53,Unlimited,SBD,M,
Boys,139.71+,3,Carlos Ramos,Seguin,148.69,124.74,61.23,156.49,342.46,Unlimited,SBD,M,
