Division,WeightClassKg,Place,Name,Team,BodyweightKg,Best3SquatKg,Best3BenchKg,Best3DeadliftKg,TotalKg,Equipment,Event,Sex,BirthDate
Girls,44.23,1,Kimberly Carrizales,Chilton,44.09,97.52,52.16,113.4,263.08,Unlimited,SBD,F,
Girls,44.23,2,Shaelyn Goode,Little River Academy,42.64,65.77,47.63,81.65,195.04,Unlimited,SBD,F,
Girls,47.85,1,Sophie Martinez,Little River Academy,45.45,92.99,52.16,92.99,238.14,Unlimited,SBD,F,
Girls,47.85,2,Abbie Golden,Little River Academy,47.72,81.65,49.9,88.45,219.99,Unlimited,SBD,F,
Girls,51.94,1,Zoey Ontiveros,Little River Academy,51.71,111.13,56.7,117.93,285.76,Unlimited,SBD,F,
Girls,51.94,2,Germaiya Robinson,Chilton,48.99,79.38,49.9,115.67,244.94,Unlimited,SBD,F,
Girls,51.94,3,Yarida Deleon,Chilton,50.35,97.52,56.7,83.91,238.14,Unlimited,SBD,F,
Girls,51.94,4,Irene Flores,Thorndale,51.07,88.45,45.36,97.52,231.33,Unlimited,SBD,F,
Girls,56.02,1,Belle Roberson,Thorndale,55.34,106.59,54.43,111.13,272.16,Unlimited,SBD,F,
Girls,56.02,2,Mckenzie Green,Little River Academy,54.07,81.65,54.43,104.33,240.4,Unlimited,SBD,F,
Girls,56.02,3,Ardena Gray,Milano,55.79,70.31,45.36,92.99,208.65,Unlimited,SBD,F,
Girls,60.1,1,Sarah Brackett,Little River Academy,58.97,102.06,68.04,122.47,292.57,Unlimited,SBD,F,
Girls,60.1,2,Layla Posey,Little River Academy,59.15,102.06,52.16,97.52,251.74,Unlimited,SBD,F,
Girls,60.1,3,Aislyn Wilson,Thorndale,59.15,86.18,40.82,72.57,199.58,Unlimited,SBD,F,
Girls,67.36,1,Jordyn Stutts,Thorndale,65.41,158.76,90.72,140.61,390.09,Unlimited,SBD,F,
Girls,67.36,2,Melanee Moccia,Milano,63.96,142.88,70.31,117.93,331.12,Unlimited,SBD,F,
Girls,67.36,3,Lakota Seal,Milano,66.68,102.06,72.57,113.4,288.03,Unlimited,SBD,F,
Girls,67.36,4,Karley Hairston,Milano,62.14,106.59,61.23,113.4,281.23,Unlimited,SBD,F,
Girls,67.36,5,Bethel Tsai,Little River Academy,64.86,92.99,68.04,120.2,281.23,Unlimited,SBD,F,
Girls,67.36,DQ,Natalia Arjon,Little River Academy,64.59,113.4,,,,Unlimited,SBD,F,
Girls,75.07,1,Toni Meyer,Milano,69.22,124.74,79.38,131.54,335.66,Unlimited,SBD,F,
Girls,75.07,2,Gretchen Bui,Milano,73.75,115.67,68.04,127.01,310.71,Unlimited,SBD,F,
Girls,75.07,3,Alayna Ramirez,Thorndale,71.76,102.06,68.04,115.67,285.76,Unlimited,SBD,F,
Girls,82.33,1,Arabella Flores,Milano,81.65,111.13,61.23,120.2,292.57,Unlimited,SBD,F,
Girls,90.04,1,Rayelee Keen,Milano,86.18,111.13,74.84,136.08,322.05,Unlimited,SBD,F,
Girls,90.04,2,Makenzie Copeland,Little River Academy,88.54,111.13,70.31,129.27,310.71,Unlimited,SBD,F,
Girls,90.04,3,Zoey Trevino,Chilton,82.37,113.4,70.31,104.33,288.03,Unlimited,SBD,F,
Girls,100.02,DQ,Felicity Gamboa,Chilton,97.52,115.67,56.7,,,Unlimited,SBD,F,
Girls,110,1,Caryssa Degrate,Chilton,106.59,136.08,79.38,111.13,326.59,Unlimited,SBD,F,
Girls,110+,1,Olivia Wren,Chilton,129.73,158.76,90.72,167.83,417.3,Unlimited,SBD,F,
Girls,110+,2,Cece Sandoval,Thorndale,113.58,149.69,86.18,149.69,385.55,Unlimited,SBD,F,
