Division,WeightClassKg,Place,Name,Team,BodyweightKg,Best3SquatKg,Best3BenchKg,Best3DeadliftKg,TotalKg,Equipment,Event,Sex,BirthDate
Girls,44.23,1,Clarissa Rodriguez,Los Fresnos,43.27,149.69,74.84,124.74,349.27,Unlimited,SBD,F,
Girls,44.23,2,Samantha Rodriguez,Mission,44,131.54,58.97,127.01,317.51,Unlimited,SBD,F,
Girls,44.23,3,Victoria Rodriguez,Los Fresnos,42.5,120.2,54.43,115.67,290.3,Unlimited,SBD,F,
Girls,44.23,4,Yarithza Barron,Weslaco,44.23,99.79,58.97,117.93,276.69,Unlimited,SBD,F,
Girls,44.23,5,Aniah Gonzales,Del Rio,38.65,111.13,56.7,99.79,267.62,Unlimited,SBD,F,
Girls,44.23,6,Hailey Galarza,San Benito,43.82,104.33,61.23,102.06,267.62,Unlimited,SBD,F,
Girls,44.23,7,Glenda Ortiz,Los Fresnos,41.28,106.59,45.36,106.59,258.55,Unlimited,SBD,F,
Girls,44.23,8,Jailyn Rios,Mission,44,88.45,38.56,117.93,244.94,Unlimited,SBD,F,
Girls,44.23,9,Vanessa Suarez,Edinburg,42.68,95.25,47.63,95.25,238.14,Unlimited,SBD,F,
Girls,44.23,10,Isabella Caratachea,Weslaco,41.14,90.72,47.63,95.25,233.6,Unlimited,SBD,F,
Girls,44.23,DQ,Valeria Reyes,Del Rio,40.23,102.06,45.36,,,Unlimited,SBD,F,
Girls,44.23,DQ,Ashley Aguirre,Edinburg North,43.59,,,,,Unlimited,SBD,F,
Girls,44.23,DQ,Mia Hernandez,Del Rio,44,,,,,Unlimited,SBD,F,
Girls,47.85,1,Valeria Quiroz,Weslaco,47.4,140.61,70.31,140.61,351.53,Unlimited,SBD,F,
Girls,47.85,2,Valeria Villarreal,PSJA,46.86,142.88,58.97,142.88,344.73,Unlimited,SBD,F,
Girls,47.85,3,Kailyn Lomas,Del Rio,45.9,147.42,63.5,127.01,337.93,Unlimited,SBD,F,
Girls,47.85,4,Jade Guzman,Edinburg,46.4,124.74,70.31,136.08,331.12,Unlimited,SBD,F,
Girls,47.85,5,Chloe Juarez,Del Rio,47.08,145.15,68.04,117.93,331.12,Unlimited,SBD,F,
Girls,47.85,6,Alyssa Baker,San Benito,47.13,117.93,65.77,131.54,315.25,Unlimited,SBD,F,
Girls,47.85,7,Kaitlyn Lozano,Edinburg North,46.9,113.4,49.9,120.2,283.5,Unlimited,SBD,F,
Girls,47.85,8,Arieanah Carillo,Edinburg,46.86,113.4,61.23,106.59,281.23,Unlimited,SBD,F,
Girls,47.85,9,Helen Moreno,Los Fresnos,47.49,111.13,54.43,99.79,265.35,Unlimited,SBD,F,
Girls,47.85,10,Monique Cavazos,Weslaco,46.18,111.13,45.36,97.52,254.01,Unlimited,SBD,F,
Girls,47.85,11,Alexi Flores,Los Fresnos,46.99,99.79,49.9,102.06,251.74,Unlimited,SBD,F,
Girls,47.85,12,Stephania Hernandez,Edinburg,47.54,104.33,47.63,97.52,249.48,Unlimited,SBD,F,
Girls,51.94,1,Alondra Salas,Los Fresnos,50.44,138.35,65.77,156.49,360.61,Unlimited,SBD,F,
Girls,51.94,2,Samantha Espinoza,Weslaco,50.89,138.35,74.84,142.88,356.07,Unlimited,SBD,F,
Girls,51.94,3,Astryd Aparicio,Edinburg Economedes,50.48,129.27,74.84,145.15,349.27,Unlimited,SBD,F,
Girls,51.94,4,Aubrey Medina,Weslaco,51.03,145.15,70.31,131.54,347,Unlimited,SBD,F,
Girls,51.94,5,Graciella Estrada,Harlingen,50.39,129.27,70.31,122.47,322.05,Unlimited,SBD,F,
Girls,51.94,6,Zaira Gracia,Los Fresnos,51.17,131.54,74.84,115.67,322.05,Unlimited,SBD,F,
Girls,51.94,7,Ava Krawczynski,Los Fresnos,51.07,117.93,65.77,136.08,319.78,Unlimited,SBD,F,
Girls,51.94,8,Chohlis Callaghan,San Antonio East Central,49.44,111.13,74.84,124.74,310.71,Unlimited,SBD,F,
Girls,51.94,9,Gabby Diaz,Del Rio,51.17,117.93,63.5,124.74,306.17,Unlimited,SBD,F,
Girls,51.94,10,Janie Garcia,Los Fresnos,50.17,106.59,54.43,117.93,278.96,Unlimited,SBD,F,
Girls,51.94,11,Mia Rendon,Los Fresnos,50.21,115.67,49.9,113.4,278.96,Unlimited,SBD,F,
Girls,51.94,DQ,Kim Harlow,Edinburg North,51.07,,,,,Unlimited,SBD,F,
Girls,51.94,DQ,Madison Silva,Brownsville Hanna,49.71,,,,,Unlimited,SBD,F,
Girls,51.94,DQ,Cecilia Juarez,Harlingen,48.58,,,,,Unlimited,SBD,F,
Girls,51.94,DQ,Mia Gutierrez,San Benito,51.71,,,,,Unlimited,SBD,F,
Girls,51.94,DQ,Jessielle Torres,Los Fresnos,51.8,122.47,77.11,115.67,,Unlimited,SBD,F,
Girls,56.02,1,Jo Villanueva,Weslaco,54.3,156.49,74.84,161.03,392.36,Unlimited,SBD,F,
Girls,56.02,2,Mia Ramirez,Brownsville Rivera,55.66,156.49,72.57,136.08,365.14,Unlimited,SBD,F,
Girls,56.02,3,Fernanda Arellano,Los Fresnos,54.88,129.27,83.91,131.54,344.73,Unlimited,SBD,F,
Girls,56.02,4,Aubrey Cantu,Harlingen,54.98,133.81,83.91,122.47,340.19,Unlimited,SBD,F,
Girls,56.02,5,Allison Saavedra,Los Fresnos,54.3,127.01,74.84,136.08,337.93,Unlimited,SBD,F,
Girls,56.02,6,Jazmine De La Cruz,Edinburg Economedes,55.02,133.81,70.31,131.54,335.66,Unlimited,SBD,F,
Girls,56.02,7,Olivia Cancino,Edinburg North,54.98,127.01,72.57,131.54,331.12,Unlimited,SBD,F,
Girls,56.02,8,Ava Morrow,Harlingen,54.48,124.74,74.84,129.27,328.85,Unlimited,SBD,F,
Girls,56.02,9,Jenissa Siles,San Benito,55.07,117.93,70.31,127.01,315.25,Unlimited,SBD,F,
Girls,56.02,10,Kayla Williams,Del Rio,53.34,127.01,68.04,117.93,312.98,Unlimited,SBD,F,
Girls,56.02,11,Jordin Garza,San Benito,55.29,117.93,52.16,131.54,301.64,Unlimited,SBD,F,
Girls,56.02,12,Alexis Palafox,Los Fresnos,55.11,106.59,52.16,138.35,297.1,Unlimited,SBD,F,
Girls,56.02,DQ,Haiden Perales,Harlingen,55.57,124.74,86.18,,,Unlimited,SBD,F,
Girls,56.02,DQ,Allison Ambriz,Edinburg,54.84,,,,,Unlimited,SBD,F,
Girls,60.1,1,Leandra Machuca,San Benito,58.79,176.9,90.72,154.22,421.84,Unlimited,SBD,F,
Girls,60.1,2,Angelina De Leon,Edinburg Economedes,58.06,149.69,102.06,158.76,410.5,Unlimited,SBD,F,
Girls,60.1,3,Monika Vargas,Weslaco,57.61,183.7,95.25,127.01,405.97,Unlimited,SBD,F,
Girls,60.1,4,Allison Oviedo,Los Fresnos,59.6,142.88,72.57,147.42,362.87,Unlimited,SBD,F,
Girls,60.1,5,Lucinda Estrada,Harlingen,60.1,151.95,92.99,113.4,358.34,Unlimited,SBD,F,
Girls,60.1,6,Danica Rivera,Edinburg,59.92,138.35,77.11,136.08,351.53,Unlimited,SBD,F,
Girls,60.1,7,Cheyenne Ramos,Los Fresnos,57.83,147.42,74.84,113.4,335.66,Unlimited,SBD,F,
Girls,60.1,8,Priscilla Avila,Weslaco,59.42,142.88,58.97,131.54,333.39,Unlimited,SBD,F,
Girls,60.1,9,Aylein Madrigal,Edinburg,57.97,131.54,74.84,124.74,331.12,Unlimited,SBD,F,
Girls,60.1,10,Karyme Pichardo,PSJA,59.15,136.08,65.77,124.74,326.59,Unlimited,SBD,F,
Girls,60.1,11,Hayley Segura,Brownsville Hanna,58.29,124.74,81.65,115.67,322.05,Unlimited,SBD,F,
Girls,60.1,12,Alexis Lopez,Weslaco,58.29,131.54,54.43,113.4,299.37,Unlimited,SBD,F,
Girls,60.1,DQ,Reagan Esquierdo,Edinburg North,59.24,129.27,,,,Unlimited,SBD,F,
Girls,60.1,DQ,Stephany Ramirez,Los Fresnos,58.83,,,,,Unlimited,SBD,F,
Girls,67.36,1,Madison Garcia,PSJA,64.77,185.97,115.67,179.17,480.81,Unlimited,SBD,F,
Girls,67.36,2,Alyssa Nino,San Benito,66.41,167.83,104.33,161.03,433.18,Unlimited,SBD,F,
Girls,67.36,3,Rheanna Rodriguez,Weslaco,65.63,172.37,104.33,145.15,421.84,Unlimited,SBD,F,
Girls,67.36,4,Mya Villa,Edinburg Economedes,64.82,154.22,90.72,136.08,381.02,Unlimited,SBD,F,
Girls,67.36,5,Mia Dominguez,PSJA,64.23,154.22,72.57,147.42,374.21,Unlimited,SBD,F,
Girls,67.36,6,Suily Perez,Edinburg Economedes,63.91,138.35,83.91,149.69,371.95,Unlimited,SBD,F,
Girls,67.36,7,Delaney Martinez,Los Fresnos,65.59,149.69,79.38,138.35,367.41,Unlimited,SBD,F,
Girls,67.36,8,Mackenzie Carcano,Edinburg,66.63,145.15,88.45,120.2,353.8,Unlimited,SBD,F,
Girls,67.36,DQ,Betsally Garcia,Del Rio,62.64,172.37,104.33,,,Unlimited,SBD,F,
Girls,67.36,DQ,Deenah Brown,Brownsville Rivera,65.05,142.88,,,,Unlimited,SBD,F,
Girls,67.36,DQ,Emmily Moreno,San Benito,67.13,,,,,Unlimited,SBD,F,
Girls,67.36,DQ,Julyette Rocha,Los Fresnos,61.92,,,,,Unlimited,SBD,F,
Girls,75.07,1,Arianna Marin,Los Fresnos,71.62,183.7,92.99,138.35,415.04,Unlimited,SBD,F,
Girls,75.07,2,Elise Chavez,San Antonio East Central,74.16,185.97,86.18,131.54,403.7,Unlimited,SBD,F,
Girls,75.07,3,Jalynn Mitchell,San Antonio East Central,74.25,163.29,79.38,151.95,394.63,Unlimited,SBD,F,
Girls,75.07,4,Priscilla Mendoza,Los Fresnos,72.03,147.42,92.99,142.88,383.29,Unlimited,SBD,F,
Girls,75.07,5,Jada Ceballos,Edinburg Economedes,72.03,149.69,92.99,131.54,374.21,Unlimited,SBD,F,
Girls,75.07,6,Sabrina Marquez,Harlingen,73.44,142.88,83.91,136.08,362.87,Unlimited,SBD,F,
Girls,75.07,7,Kaycie Vasquez,Los Fresnos,73.21,136.08,68.04,142.88,347,Unlimited,SBD,F,
Girls,75.07,8,Daisy Camacho,San Antonio East Central,70.62,140.61,70.31,133.81,344.73,Unlimited,SBD,F,
Girls,75.07,9,Meagan Aguilar,Edinburg,72.17,142.88,77.11,124.74,344.73,Unlimited,SBD,F,
Girls,75.07,10,Paola Barron,Los Fresnos,71.99,145.15,68.04,124.74,337.93,Unlimited,SBD,F,
Girls,75.07,11,Sarah Cantu,Weslaco,72.44,124.74,79.38,129.27,333.39,Unlimited,SBD,F,
Girls,75.07,DQ,Kayla Dinn,Harlingen,70.9,,,,,Unlimited,SBD,F,
Girls,75.07,DQ,Ashley Cruz,Harlingen,72.03,183.7,120.2,,,Unlimited,SBD,F,
Girls,75.07,DQ,Summer Ayala,Edinburg North,71.99,,,,,Unlimited,SBD,F,
Girls,82.33,1,Lynette Herrera,Edinburg,80.56,206.38,97.52,174.63,478.54,Unlimited,SBD,F,
Girls,82.33,2,Ashley Molina,Edinburg Economedes,76.88,163.29,92.99,163.29,419.57,Unlimited,SBD,F,
Girls,82.33,3,Ameerah Gonzales,Brownsville Hanna,78.15,170.1,97.52,149.69,417.3,Unlimited,SBD,F,
Girls,82.33,4,Chasadie Rodriguez,Harlingen,79.24,158.76,102.06,129.27,390.09,Unlimited,SBD,F,
Girls,82.33,5,Karoline Ramos,Mission,82.1,161.03,88.45,136.08,385.55,Unlimited,SBD,F,
Girls,82.33,6,Jamarilyz Alvarado,San Antonio East Central,81.56,156.49,83.91,131.54,371.95,Unlimited,SBD,F,
Girls,82.33,7,Karyme Arguelles,Brownsville Hanna,79.24,156.49,83.91,124.74,365.14,Unlimited,SBD,F,
Girls,82.33,8,Myrka Cuadros,Mission,82.1,165.56,65.77,127.01,358.34,Unlimited,SBD,F,
Girls,82.33,9,Ana Ortiz,Los Fresnos,75.11,140.61,77.11,133.81,351.53,Unlimited,SBD,F,
Girls,82.33,10,Giselle Sanchez,Edinburg,79.51,140.61,68.04,138.35,347,Unlimited,SBD,F,
Girls,82.33,11,Clarissa Pena,PSJA,78.79,124.74,70.31,149.69,344.73,Unlimited,SBD,F,
Girls,82.33,DQ,Mia Munoz,San Benito,80.15,161.03,88.45,,,Unlimited,SBD,F,
Girls,82.33,DQ,Natalie Lopez,Edinburg Economedes,80.88,138.35,,,,Unlimited,SBD,F,
Girls,90.04,1,Kimberly Almazan,Los Fresnos,85.09,192.78,127.01,170.1,489.88,Unlimited,SBD,F,
Girls,90.04,2,Nevaeh Baca,San Antonio East Central,88.13,201.85,111.13,142.88,455.86,Unlimited,SBD,F,
Girls,90.04,3,Makayla Atkinson,Los Fresnos,89.58,176.9,111.13,154.22,442.25,Unlimited,SBD,F,
Girls,90.04,4,Dyanara Alvear,Weslaco,88.18,165.56,106.59,154.22,426.38,Unlimited,SBD,F,
Girls,90.04,5,Ariana Mermik,Harlingen,86.95,172.37,97.52,136.08,405.97,Unlimited,SBD,F,
Girls,90.04,6,Caitlyn Gonzalez,Del Rio,88.31,163.29,90.72,136.08,390.09,Unlimited,SBD,F,
Girls,90.04,7,Daniella Izaguirre,Edinburg,86.23,151.95,70.31,147.42,369.68,Unlimited,SBD,F,
Girls,90.04,8,Jennifer Del Castillo,Edinburg,83.6,151.95,83.91,129.27,365.14,Unlimited,SBD,F,
Girls,90.04,9,Joanne Rodriguez,Edinburg Economedes,87.82,149.69,97.52,117.93,365.14,Unlimited,SBD,F,
Girls,90.04,10,Jalissa Alanis,Los Fresnos,86.05,142.88,68.04,129.27,340.19,Unlimited,SBD,F,
Girls,90.04,DQ,Jysiam Acosta,Brownsville Hanna,86.91,149.69,102.06,,,Unlimited,SBD,F,
Girls,90.04,DQ,Araceli Reyna,Edinburg,88.77,,,,,Unlimited,SBD,F,
Girls,100.02,1,Trisha Cardenas,Weslaco,97.98,199.58,120.2,151.95,471.74,Unlimited,SBD,F,
Girls,100.02,2,Elsa Raya,Brownsville Hanna,95.62,174.63,149.69,142.88,467.2,Unlimited,SBD,F,
Girls,100.02,3,Jimena Lopez,Edinburg North,92.17,204.12,86.18,163.29,453.59,Unlimited,SBD,F,
Girls,100.02,4,Karelly Jimenez,Brownsville Hanna,97.34,181.44,113.4,158.76,453.59,Unlimited,SBD,F,
Girls,100.02,5,Isabella Alvarado,Weslaco,95.53,176.9,86.18,154.22,417.3,Unlimited,SBD,F,
Girls,100.02,6,Harmonie Wilson,San Antonio East Central,94.89,163.29,102.06,142.88,408.23,Unlimited,SBD,F,
Girls,100.02,7,Arabella Aguirre,San Benito,94.94,147.42,79.38,124.74,351.53,Unlimited,SBD,F,
Girls,100.02,8,Sheyla Garcia,PSJA,93.53,136.08,83.91,129.27,349.27,Unlimited,SBD,F,
Girls,100.02,DQ,Kylie Smith,San Antonio East Central,93.67,138.35,68.04,,,Unlimited,SBD,F,
Girls,100.02,DQ,Cadence Rodriguez,Del Rio,90.31,,,,,Unlimited,SBD,F,
Girls,100.02,DQ,Yanel Garcia,Edinburg Economedes,99.79,,,,,Unlimited,SBD,F,
Girls,100.02,DQ,Jasmine Garcia,Edinburg,97.34,,,,,Unlimited,SBD,F,
Girls,110,1,Desi Coronado,Del Rio,108.18,217.72,136.08,167.83,521.63,Unlimited,SBD,F,
Girls,110,2,Breanna Amos,Weslaco,104.69,204.12,122.47,192.78,519.36,Unlimited,SBD,F,
Girls,110,3,Reagan Garcia,San Antonio East Central,109.27,185.97,140.61,163.29,489.88,Unlimited,SBD,F,
Girls,110,4,Kya Smith,San Antonio East Central,108.05,192.78,102.06,149.69,444.52,Unlimited,SBD,F,
Girls,110,5,Lynette Lopez,Weslaco,108.59,188.24,108.86,136.08,433.18,Unlimited,SBD,F,
Girls,110,6,Kaelin Bynum,Edinburg,105.6,176.9,90.72,158.76,426.38,Unlimited,SBD,F,
Girls,110,7,Jozanna Montes,San Benito,102.97,174.63,77.11,140.61,392.36,Unlimited,SBD,F,
Girls,110,8,Hannah Hurtado,Del Rio,107,147.42,83.91,129.27,360.61,Unlimited,SBD,F,
Girls,110,9,Karla Rivas,Edinburg Economedes,109.63,133.81,97.52,113.4,344.73,Unlimited,SBD,F,
Girls,110,10,Clarissa Rodriguez,San Benito,101.51,142.88,70.31,120.2,333.39,Unlimited,SBD,F,
Girls,110,DQ,Emma Munoz,Edinburg Economedes,108.86,172.37,,,,Unlimited,SBD,F,
Girls,110,DQ,Melanie Garcia,Los Fresnos,109,,,,,Unlimited,SBD,F,
Girls,110+,1,Jaslyn Estrella,San Benito,114.44,233.6,108.86,192.78,535.24,Unlimited,SBD,F,
Girls,110+,2,Julia Medellin,Edinburg North,127.14,215.46,122.47,133.81,471.74,Unlimited,SBD,F,
Girls,110+,3,Daniela Cedillo,Edinburg,126.78,217.72,81.65,142.88,442.25,Unlimited,SBD,F,
Girls,110+,4,Amy Saenz,Edinburg Economedes,111.04,147.42,113.4,145.15,405.97,Unlimited,SBD,F,
Girls,110+,5,Gabriella Gaona,Edinburg,147.69,124.74,65.77,102.06,292.57,Unlimited,SBD,F,
Girls,110+,6,Ashley Olguin,La Joya,110.22,88.45,54.43,102.06,244.94,Unlimited,SBD,F,
Girls,110+,DQ,Bianca Bermudez,Brownsville Rivera,110.22,,,,,Unlimited,SBD,F,
Girls,110+,DQ,Victoria De Los Santos,Del Rio,130.27,190.51,95.25,,,Unlimited,SBD,F,
Girls,110+,DQ,Nadiezhda Ruiz,Edinburg,125.42,215.46,,,,Unlimited,SBD,F,
