Division,WeightClassKg,Place,Name,Team,BodyweightKg,Best3SquatKg,Best3BenchKg,Best3DeadliftKg,TotalKg,Equipment,Event,Sex
Boys,51.71,1,Esteban Urquieta,Corpus Christi Tuloso-Midway,50.89,165.56,83.91,183.7,433.18,Single-ply,SBD,M
Boys,51.71,2,Brandon Fernandez,Poteet,48.9,145.15,79.38,156.49,381.02,Single-ply,SBD,M
Boys,51.71,3,Chris Edwards,Aransas Pass,50.08,115.67,70.31,117.93,303.91,Single-ply,SBD,M
Boys,51.71,4,Justin Bronaugh,Skidmore-Tynan,49.9,90.72,52.16,104.33,247.21,Single-ply,SBD,M
Boys,51.71,5,Nathan Atkinson #1,Corpus Christi Calallen,50.71,61.23,29.48,90.72,181.44,Single-ply,SBD,M
Boys,51.71,DQ,Robbie Montemayor,Taft,51.17,,,,,Single-ply,SBD,M
Boys,55.79,1,Cole Terry,Skidmore-Tynan,55.34,176.9,99.79,185.97,462.66,Single-ply,SBD,M
Boys,55.79,2,Adrian Campos,Freer,55.43,181.44,120.2,161.03,462.66,Single-ply,SBD,M
Boys,55.79,3,Niko Munoz,Falfurrias,55.07,165.56,113.4,172.37,451.32,Single-ply,SBD,M
Boys,55.79,4,Deonte Duhart,Ingleside,55.16,138.35,70.31,147.42,356.07,Single-ply,SBD,M
Boys,55.79,5,Isaiah Alaniz,Corpus Christi Tuloso-Midway,52.8,102.06,70.31,124.74,297.1,Single-ply,SBD,M
Boys,55.79,6,Mark Moreno,Odem,55.16,102.06,52.16,122.47,276.69,Single-ply,SBD,M
Boys,55.79,7,Anthony Ramirez,Corpus Christi West Oso,53.71,88.45,63.5,115.67,267.62,Single-ply,SBD,M
Boys,55.79,8,Josh Trevino,Corpus Christi West Oso,54.43,97.52,56.7,111.13,265.35,Single-ply,SBD,M
Boys,55.79,9,Cody Kolar,Corpus Christi Calallen,54.61,74.84,56.7,81.65,213.19,Single-ply,SBD,M
Boys,55.79,DQ,AJ Perez,Ben Bolt-Palito Blanco,55.7,,,,,Single-ply,SBD,M
Boys,59.87,1,Lucas Lara,Mathis,58.97,174.63,102.06,210.92,487.61,Single-ply,SBD,M
Boys,59.87,2,Ethan Bass,Ingleside,58.69,183.7,117.93,183.7,485.34,Single-ply,SBD,M
Boys,59.87,3,Juan Vasquez #1,Corpus Christi Calallen,58.6,179.17,88.45,185.97,453.59,Single-ply,SBD,M
Boys,59.87,4,Jose Hernandez #13,Corpus Christi West Oso,57.97,167.83,92.99,183.7,444.52,Single-ply,SBD,M
Boys,59.87,5,Chris Trevino,San Diego,56.52,142.88,86.18,161.03,390.09,Single-ply,SBD,M
Boys,59.87,6,Cody Underwood,Odem,57.7,133.81,61.23,115.67,310.71,Single-ply,SBD,M
Boys,59.87,7,Adrian Valdez,Goliad,57.61,97.52,65.77,102.06,265.35,Single-ply,SBD,M
Boys,59.87,8,Andre Davis,Goliad,55.88,65.77,52.16,65.77,183.7,Single-ply,SBD,M
Boys,67.13,1,Andrew Garcia,Mathis,64.77,174.63,113.4,215.46,503.49,Single-ply,SBD,M
Boys,67.13,2,Richard Rea,Freer,65.23,192.78,106.59,201.85,501.22,Single-ply,SBD,M
Boys,67.13,3,Justin Cardenas,Pettus,66.5,158.76,104.33,213.19,476.27,Single-ply,SBD,M
Boys,67.13,4,Robert Hughes #2,Sinton,60.78,145.15,92.99,190.51,428.64,Single-ply,SBD,M
Boys,67.13,5,Austin Mendez,San Diego,60.33,145.15,92.99,183.7,421.84,Single-ply,SBD,M
Boys,67.13,6,Christian Flores,Ingleside,66.59,149.69,92.99,158.76,401.43,Single-ply,SBD,M
Boys,67.13,7,Jose Saenz,San Diego,65.95,142.88,92.99,158.76,394.63,Single-ply,SBD,M
Boys,67.13,8,Abel Cervantez,Sinton,63.41,138.35,86.18,158.76,383.29,Single-ply,SBD,M
Boys,67.13,9,Dominic Sanchez,Mathis,62.41,124.74,102.06,124.74,351.53,Single-ply,SBD,M
Boys,67.13,10,Bobby Nunez,San Diego,60.87,108.86,68.04,145.15,322.05,Single-ply,SBD,M
Boys,67.13,11,Robert Cadena,Falfurrias,64.68,124.74,61.23,124.74,310.71,Single-ply,SBD,M
Boys,67.13,12,Gilbert Acuna,Corpus Christi West Oso,61.87,104.33,52.16,133.81,290.3,Single-ply,SBD,M
Boys,67.13,13,Brody Rogers,Corpus Christi Calallen,65.41,97.52,74.84,113.4,285.76,Single-ply,SBD,M
Boys,67.13,14,Roy Salinas,Banquete,64.68,97.52,68.04,113.4,278.96,Single-ply,SBD,M
Boys,67.13,DQ,Luis Salinas,Aransas Pass,67.04,149.69,,,,Single-ply,SBD,M
Boys,67.13,DQ,Adan Diaz,Aransas Pass,63.96,104.33,,,,Single-ply,SBD,M
Boys,74.84,1,Anthony Perez,San Diego,69.13,274.42,165.56,226.8,666.78,Single-ply,SBD,M
Boys,74.84,2,Lee Bazan,San Diego,74.39,229.06,142.88,208.65,580.6,Single-ply,SBD,M
Boys,74.84,3,Jaxon Mabile,Ingleside,70.13,204.12,102.06,183.7,489.88,Single-ply,SBD,M
Boys,74.84,4,Joseph Dominguez,Taft,73.21,179.17,99.79,199.58,478.54,Single-ply,SBD,M
Boys,74.84,5,Logen Schanen,Skidmore-Tynan,73.94,181.44,102.06,192.78,476.27,Single-ply,SBD,M
Boys,74.84,6,Chiso Nwamkpa,Corpus Christi Tuloso-Midway,73.75,172.37,106.59,195.04,474,Single-ply,SBD,M
Boys,74.84,7,Zach Graves,Taft,73.21,165.56,115.67,183.7,464.93,Single-ply,SBD,M
Boys,74.84,8,Andrew Martinez,Aransas Pass,72.57,165.56,102.06,165.56,433.18,Single-ply,SBD,M
Boys,74.84,9,Aaron Champion,Mathis,73.21,165.56,106.59,158.76,430.91,Single-ply,SBD,M
Boys,74.84,10,Nick Teer,Aransas Pass,73.3,156.49,111.13,163.29,430.91,Single-ply,SBD,M
Boys,74.84,11,Ramiro DeLeon,Mathis,68.72,158.76,106.59,161.03,426.38,Single-ply,SBD,M
Boys,74.84,12,Josh Hernandez,Banquete,73.39,147.42,102.06,165.56,415.04,Single-ply,SBD,M
Boys,74.84,13,Juan Rodriguez,Mathis,73.84,158.76,108.86,142.88,410.5,Single-ply,SBD,M
Boys,74.84,14,Gavin Gonzalez,Corpus Christi Tuloso-Midway,74.48,142.88,70.31,129.27,342.46,Single-ply,SBD,M
Boys,74.84,15,Jarran Carillo,Three Rivers,73.84,127.01,68.04,138.35,333.39,Single-ply,SBD,M
Boys,74.84,DQ,Philip Sullivan #2,Corpus Christi Tuloso-Midway,74.3,163.29,,,,Single-ply,SBD,M
Boys,74.84,DQ,Roy Zepeda,Corpus Christi Tuloso-Midway,73.75,,,,,Single-ply,SBD,M
Boys,74.84,DQ,Austin Candaleria,Corpus Christi Tuloso-Midway,70.22,136.08,,,,Single-ply,SBD,M
Boys,74.84,DQ,Exander Gamez,Sinton,73.57,133.81,97.52,,,Single-ply,SBD,M
Boys,82.1,1,Gustavo Gallardo,Sinton,81.01,217.72,145.15,231.33,594.21,Single-ply,SBD,M
Boys,82.1,2,Lupe Calamaco,Sinton,80.65,206.38,120.2,224.53,551.11,Single-ply,SBD,M
Boys,82.1,3,Jacob Warren,Ingleside,81.19,197.31,127.01,192.78,517.1,Single-ply,SBD,M
Boys,82.1,4,Joseph Zapata,Falfurrias,76.84,183.7,133.81,183.7,501.22,Single-ply,SBD,M
Boys,82.1,5,Mattheq Garza,Corpus Christi West Oso,79.83,183.7,120.2,183.7,487.61,Single-ply,SBD,M
Boys,82.1,6,Mike Esquivel,Taft,78.29,172.37,102.06,185.97,460.4,Single-ply,SBD,M
Boys,82.1,7,Nemencio Tijerina,Poteet,76.02,163.29,83.91,174.63,421.84,Single-ply,SBD,M
Boys,82.1,8,Adrian Davila,Aransas Pass,77.93,120.2,111.13,145.15,376.48,Single-ply,SBD,M
Boys,82.1,9,John Espinoza,Odem,78.29,149.69,92.99,129.27,371.95,Single-ply,SBD,M
Boys,82.1,10,Tayloir Stockton,Three Rivers,79.38,136.08,81.65,138.35,356.07,Single-ply,SBD,M
Boys,82.1,11,Daniel Narvaez,Falfurrias,81.92,127.01,83.91,142.88,353.8,Single-ply,SBD,M
Boys,82.1,12,Julian Urrea,Banquete,78.47,90.72,61.23,124.74,276.69,Single-ply,SBD,M
Boys,82.1,DQ,Mateo Arteaga,Skidmore-Tynan,81.65,161.03,,,,Single-ply,SBD,M
Boys,82.1,DQ,Trinidad Salazar,Corpus Christi Tuloso-Midway,79.11,149.69,,,,Single-ply,SBD,M
Boys,89.81,1,Damian Hinojosa,Corpus Christi Calallen,89.36,249.48,142.88,231.33,623.69,Single-ply,SBD,M
Boys,89.81,2,Seth Ruff,Ingleside,85.09,238.14,138.35,240.4,616.89,Single-ply,SBD,M
Boys,89.81,3,Joseph Araujo,San Diego,85.82,226.8,142.88,226.8,596.47,Single-ply,SBD,M
Boys,89.81,4,Marcus Cerda,Taft,88.36,201.85,136.08,210.92,548.85,Single-ply,SBD,M
Boys,89.81,5,Michael Gomez #1,Poteet,88.27,206.38,120.2,183.7,510.29,Single-ply,SBD,M
Boys,89.81,6,Jeron Adams,San Diego,88.36,188.24,102.06,163.29,453.59,Single-ply,SBD,M
Boys,89.81,7,Joey Gamez,Odem,84.82,161.03,106.59,147.42,415.04,Single-ply,SBD,M
Boys,89.81,8,Alex Diaz #3,Three Rivers,83.91,149.69,90.72,172.37,412.77,Single-ply,SBD,M
Boys,89.81,DQ,Genaro Tijerina,Banquete,83.73,,,,,Single-ply,SBD,M
Boys,89.81,DQ,Brandon Beltran,Odem,84.64,,,,,Single-ply,SBD,M
Boys,89.81,DQ,Dominic Zamora,Odem,82.64,142.88,,,,Single-ply,SBD,M
Boys,89.81,DQ,Marcos Gonzalez,Ben Bolt-Palito Blanco,88.99,,,,,Single-ply,SBD,M
Boys,89.81,DQ,John Martinez,Falfurrias,85.64,226.8,163.29,,,Single-ply,SBD,M
Boys,99.79,1,Ryan Rasbury,Mathis,97.52,226.8,131.54,226.8,585.13,Single-ply,SBD,M
Boys,99.79,2,Tristian Perez,Ben Bolt-Palito Blanco,91.08,238.14,151.95,183.7,573.79,Single-ply,SBD,M
Boys,99.79,3,Marcus Hinojosa,Skidmore-Tynan,99.34,226.8,117.93,226.8,571.53,Single-ply,SBD,M
Boys,99.79,4,Moses Carrasco,Poteet,98.07,226.8,113.4,226.8,566.99,Single-ply,SBD,M
Boys,99.79,5,Alejandro Ortega,Corpus Christi Calallen,97.16,215.46,124.74,197.31,537.51,Single-ply,SBD,M
Boys,99.79,6,Tim Carrasco,Poteet,93.26,183.7,92.99,215.46,492.15,Single-ply,SBD,M
Boys,99.79,7,Michael Barajas,Mathis,91.17,188.24,111.13,183.7,483.08,Single-ply,SBD,M
Boys,99.79,8,Roberto Torres,Sinton,95.98,165.56,108.86,183.7,458.13,Single-ply,SBD,M
Boys,99.79,9,Isaac Martinez,Corpus Christi Tuloso-Midway,96.07,181.44,111.13,163.29,455.86,Single-ply,SBD,M
Boys,99.79,10,Juan Chavera,Falfurrias,95.8,195.04,90.72,149.69,435.45,Single-ply,SBD,M
Boys,99.79,11,Zavien Anthony,Mathis,99.52,181.44,106.59,147.42,435.45,Single-ply,SBD,M
Boys,99.79,12,John Cuevara,Banquete,94.44,154.22,95.25,158.76,408.23,Single-ply,SBD,M
Boys,99.79,13,Armando Benavidez,Corpus Christi West Oso,95.44,161.03,88.45,154.22,403.7,Single-ply,SBD,M
Boys,99.79,14,Jayden Rodriguez,Corpus Christi Calallen,92.35,142.88,88.45,151.95,383.29,Single-ply,SBD,M
Boys,99.79,15,Garrett Rangel,Corpus Christi Calallen,99.61,127.01,97.52,154.22,378.75,Single-ply,SBD,M
Boys,99.79,16,Zakery Guerra,Goliad,95.35,131.54,90.72,142.88,365.14,Single-ply,SBD,M
Boys,99.79,17,Peyton Rasbury,Mathis,98.52,142.88,70.31,142.88,356.07,Single-ply,SBD,M
Boys,99.79,18,John Enriquez,Corpus Christi Calallen,99.16,113.4,65.77,122.47,301.64,Single-ply,SBD,M
Boys,99.79,DQ,Jacob Castellanos,Corpus Christi Calallen,94.71,,,,,Single-ply,SBD,M
Boys,99.79,DQ,Curtis Brooks,Corpus Christi Calallen,94.44,,,,,Single-ply,SBD,M
Boys,99.79,DQ,Paul Trevino,Taft,92.35,181.44,,,,Single-ply,SBD,M
Boys,109.77,1,Joey Garza,Falfurrias,108.05,283.5,151.95,258.55,694,Single-ply,SBD,M
Boys,109.77,2,Angel Hernandez #8,Goliad,106.23,249.48,158.76,249.48,657.71,Single-ply,SBD,M
Boys,109.77,3,Alexamder Tijerina,Ingleside,108.95,265.35,154.22,217.72,637.3,Single-ply,SBD,M
Boys,109.77,4,Thomas Puente,Skidmore-Tynan,108.86,258.55,149.69,217.72,625.96,Single-ply,SBD,M
Boys,109.77,5,Francisco Gonzalez,Sinton,108.05,226.8,163.29,206.38,596.47,Single-ply,SBD,M
Boys,109.77,6,Marcus Avitia,Ingleside,106.32,229.06,161.03,199.58,589.67,Single-ply,SBD,M
Boys,109.77,7,Isaiah Rios,Corpus Christi West Oso,107.14,217.72,129.27,192.78,539.77,Single-ply,SBD,M
Boys,109.77,8,Richard Alvarado,Aransas Pass,105.78,192.78,145.15,199.58,537.51,Single-ply,SBD,M
Boys,109.77,9,Paul Rojas,Goliad,104.87,190.51,117.93,174.63,483.08,Single-ply,SBD,M
Boys,109.77,10,Raul Maa,Poteet,109.23,192.78,111.13,176.9,480.81,Single-ply,SBD,M
Boys,109.77,11,Mason Pena,Ben Bolt-Palito Blanco,106.41,151.95,120.2,183.7,455.86,Single-ply,SBD,M
Boys,109.77,12,Andrew Zuniga,Three Rivers,105.96,158.76,104.33,163.29,426.38,Single-ply,SBD,M
Boys,109.77,13,James Gomez,Banquete,106.05,158.76,97.52,158.76,415.04,Single-ply,SBD,M
Boys,109.77,14,Juanito Cabrera,Falfurrias,104.87,142.88,61.23,142.88,347,Single-ply,SBD,M
Boys,109.77,15,Mateo Martinez,Goliad,104.42,120.2,77.11,140.61,337.93,Single-ply,SBD,M
Boys,109.77,16,Brody Wagner,Aransas Pass,101.51,97.52,79.38,106.59,283.5,Single-ply,SBD,M
Boys,109.77,DQ,Elijah Brown,Sinton,106.41,,,,,Single-ply,SBD,M
Boys,124.74,1,Michael Salaiz,San Diego,118.02,294.84,190.51,258.55,743.89,Single-ply,SBD,M
Boys,124.74,2,Leo Soliz,Corpus Christi Tuloso-Midway,115.58,251.74,129.27,226.8,607.81,Single-ply,SBD,M
Boys,124.74,3,Jaime Gonzales,Taft,113.4,226.8,151.95,226.8,605.55,Single-ply,SBD,M
Boys,124.74,4,Julian Gomez,Odem,114.85,238.14,154.22,208.65,601.01,Single-ply,SBD,M
Boys,124.74,5,Jakob Encinia,Sinton,115.76,229.06,167.83,188.24,585.13,Single-ply,SBD,M
Boys,124.74,6,Chris Chavez,Corpus Christi West Oso,116.39,226.8,142.88,206.38,576.06,Single-ply,SBD,M
Boys,124.74,7,Clayton Klekar,Goliad,117.66,210.92,113.4,204.12,528.44,Single-ply,SBD,M
Boys,124.74,8,Diego Gutierrez,Mathis,122.29,181.44,124.74,183.7,489.88,Single-ply,SBD,M
Boys,124.74,9,Demitri Castro,Corpus Christi Calallen,122.74,165.56,117.93,181.44,464.93,Single-ply,SBD,M
Boys,124.74,10,Jaydin Jones,Goliad,111.77,117.93,102.06,117.93,337.93,Single-ply,SBD,M
Boys,124.74,11,Keoki Bray,Three Rivers,120.93,102.06,61.23,115.67,278.96,Single-ply,SBD,M
Boys,124.74,DQ,Aaron Griffin,Corpus Christi Tuloso-Midway,113.22,151.95,,,,Single-ply,SBD,M
Boys,124.74,DQ,Nate Martinez #4,Sinton,121.29,204.12,111.13,,,Single-ply,SBD,M
Boys,124.74+,1,Marcos Romero,Odem,138.71,265.35,174.63,226.8,666.78,Single-ply,SBD,M
Boys,124.74+,2,Adrian Martinez #11,Aransas Pass,159.21,204.12,142.88,204.12,551.11,Single-ply,SBD,M
Boys,124.74+,3,Ruben Leal,Aransas Pass,127.91,226.8,142.88,142.88,512.56,Single-ply,SBD,M
Boys,124.74+,4,Rudy Orosco,Pettus,126.92,215.46,108.86,172.37,496.68,Single-ply,SBD,M
Boys,124.74+,5,Jaedon Segura,Goliad,138.35,172.37,117.93,165.56,455.86,Single-ply,SBD,M
Boys,124.74+,6,Arturo Gallegos III,Ingleside,135.17,183.7,92.99,142.88,419.57,Single-ply,SBD,M
Boys,124.74+,DQ,Seth Ritchey,Poteet,130.36,,,,,Single-ply,SBD,M
Boys,124.74+,DQ,Hector Lopez,Corpus Christi West Oso,127.64,,,,,Single-ply,SBD,M
