Place,Name,Sex,BirthDate,Country,Equipment,BodyweightKg,WeightClassKg,Squat1Kg,Squat2Kg,Squat3Kg,Squat4Kg,Best3SquatKg,Bench1Kg,Bench2Kg,Bench3Kg,Bench4Kg,Best3BenchKg,Deadlift1Kg,Deadlift2Kg,Deadlift3Kg,Deadlift4Kg,Best3DeadliftKg,TotalKg,Event,Division
1,Cheryl Hendry,F,1983-01-25,Scotland,Wraps,47.3,48,80,90,-95,,90,47.5,-52.5,-52.5,,47.5,110,-122.5,-122.5,,110,247.5,SBD,F-M1
1,Elizabeth Shaw,F,1997-08-04,Scotland,Wraps,66.05,67.5,80,-90,-90,,80,45,-50,-50,,45,110,120,132.5,,132.5,257.5,SBD,F-O
1,Diane Gaughan,F,1989-11-20,Scotland,Wraps,73.75,75,155,162.5,167.5,,167.5,95,100,102.5,,102.5,170,180,185,,185,455,SBD,F-O
2,Aimee Brown,F,1995-05-31,Scotland,Wraps,74.95,75,165,175,183,,183,72.5,77.5,85,,85,165,170,175,,175,443,SBD,F-O
3,Gemma Brown,F,1985-01-18,Scotland,Sleeves,74.4,75,125,130,132.5,,132.5,55,-57.5,-57.5,,55,145,155,160,,160,347.5,SBD,F-O
4,Khya McGurk,F,2005-12-02,Scotland,Wraps,72.65,75,100,105,110,,110,-57.5,57.5,-60,,57.5,125,130,140,,140,307.5,SBD,F-T3
1,Sarah Ann Toner,F,1984-11-26,Scotland,Sleeves,81.6,82.5,100,-105,110,,110,50,52.5,-55,,52.5,140,150,152.5,,152.5,315,SBD,F-O
2,Amy Goldie,F,1996-01-05,Scotland,Wraps,79.8,82.5,95,100,-110,,100,40,-42.5,-42.5,,40,110,115,125,,125,265,SBD,F-O
1,Rachel Greener,F,1990-03-28,,Wraps,85.3,90,155,165,-170,,165,77.5,85,92.5,,92.5,175,192.5,205,,205,462.5,SBD,F-O
2,Samantha Cunningham,F,1994-03-31,Scotland,Wraps,89.55,90,160,167.5,-175,,167.5,75,80,-85,,80,180,190,205,,205,452.5,SBD,F-O
1,Stephie Crawford,F,1990-06-20,Scotland,Wraps,120.3,110+,105,107.5,-115,,107.5,50,-52.5,-52.5,,50,125,130,137.5,,137.5,295,SBD,F-O
1,Amanda Pickard,F,1968-06-05,Scotland,Raw,122.6,110+,,,,,,80,91,-100,,91,170,191,-200,,191,282,BD,F-M4
1,Joanne Caldwell,F,1970-04-26,Scotland,Raw,74.4,75,,,,,,82.5,87.5,-92.5,,87.5,,,,,,87.5,B,F-M3
1,Alyson Smith,F,1986-06-09,Scotland,Raw,119.5,110+,,,,,,125,132.5,137.5,140,137.5,,,,,,137.5,B,F-O
1,Lesley Jayne Thomas,F,1966-04-21,England,Raw,67.1,67.5,,,,,,,,,,,125,135,145,,145,145,D,F-M4
1,Tommy McArthur,M,1988-09-08,Scotland,Wraps,67.4,67.5,160,170,180,,180,100,110,120,,120,200,220,232.5,,232.5,532.5,SBD,M-O
2,Dougie Wallace,M,1960-10-07,Scotland,Wraps,66.6,67.5,-100,-100,100,,100,70,-80,-80,,70,181,205,-207.5,,205,375,SBD,M-M5
1,Justin Sutherland,M,2005-06-30,Scotland,Wraps,68.35,75,197.5,212.5,227.5,,227.5,115,122.5,130,,130,200,217.5,233.5,,233.5,591,SBD,M-T3
2,Rory May,M,1967-10-31,Scotland,Wraps,74.9,75,170,182.5,190,,190,-107.5,112.5,117.5,,117.5,175,185,195,,195,502.5,SBD,M-M4
3,Graham Dowers,M,1964-04-02,England,Wraps,72.2,75,-160,-160,160,181,160,120,130,132.5,,132.5,175,190,,,190,482.5,SBD,M-M5
4,Budgie Mullan,M,1943-12-16,,Wraps,68.25,75,40,50,60,,60,30,-35,35,,35,50,90,105,,105,200,SBD,M-M9
1,Dean McVie,M,1990-04-17,Scotland,Sleeves,82.25,82.5,250,265,272.5,,272.5,155,165,-175,,165,280,300,310,,310,747.5,SBD,M-O
2,Andrew Donaghy,M,1986-04-17,Scotland,Wraps,81.8,82.5,210,220,227.5,,227.5,125,135,-140,,135,210,225,230,,230,592.5,SBD,M-O
3,Gordon McGuinness,M,1991-06-17,Scotland,Wraps,81.05,82.5,195,215,230,,230,110,120,130,,130,210,230,-240,,230,590,SBD,M-O
4,Jamie Ballantyne,M,1983-12-10,Scotland,Wraps,82.3,82.5,190,200,210,,210,117.5,127.5,-132.5,,127.5,200,210,220,,220,557.5,SBD,M-O
5,Thomas Long,M,1989-06-15,Scotland,Wraps,81.35,82.5,170,190,200,,200,100,110,115,,115,200,-215,-215,,200,515,SBD,M-O
6,Myles Dawson,M,1998-10-09,Scotland,Wraps,82.5,82.5,200,-205,-205,,200,92.5,100,-105,,100,200,215,-230,,215,515,SBD,M-O
1,Tony Sheppard,M,1990-01-17,Scotland,Wraps,88,90,212.5,220,-230,,220,142.5,152.5,160,,160,240,250,260,,260,640,SBD,M-O
2,Scott Taylor,M,1991-01-02,Scotland,Wraps,89.3,90,190,-205,210,,210,130,142.5,150,,150,260,280,-300,,280,640,SBD,M-O
3,Mark Collins #4,M,1984-02-05,Scotland,Wraps,89.15,90,-220,220,235,,235,117.5,122.5,127.5,,127.5,220,232.5,237.5,,237.5,600,SBD,M-M1
4,Andrejs Stellas,M,1980-03-24,Scotland,Wraps,89.95,90,-170,170,185,,185,140,150,155,,155,180,195,205,,205,545,SBD,M-M1
5,Charles McGinley,M,1993-03-14,Scotland,Wraps,89.95,90,165,175,-185,,175,130,132.5,135,,135,200,205,210,,210,520,SBD,M-O
6,Chris Woodward-Clark,M,1990-06-24,Scotland,Wraps,87,90,-130,130,140,,140,130,135,-140,,135,200,212.5,217.5,,217.5,492.5,SBD,M-O
1,Jamie Sneddon,M,2000-12-05,Scotland,Wraps,99.65,100,270,285,300,,300,175,187.5,-200,,187.5,280,292.5,302.5,,302.5,790,SBD,M-J
2,Adam Ross,M,1991-08-26,Scotland,Wraps,98.1,100,260,275,-281,-281,275,190,200,-206,,200,290,310,-325,,310,785,SBD,M-O
3,Richard Page,M,1987-11-09,Scotland,Wraps,99.85,100,240,265,-270,,265,-135,140,145,,145,245,265,-280,,265,675,SBD,M-O
4,Ronnie Stephen,M,1990-04-09,,Wraps,99.45,100,200,220,-240,,220,-145,155,160,,160,255,-265,,,255,635,SBD,M-O
5,Martyn Keenan,M,1983-11-05,Scotland,Wraps,99.85,100,220,232.5,240,,240,125,130,-135,,130,230,250,257.5,271,257.5,627.5,SBD,M-M1
DQ,Mark Cope,M,1986-06-14,Scotland,Wraps,98.2,100,-160,,,,,-125,-190,,,,-185,,,,,,SBD,M-O
1,Steven Murray,M,1988-04-02,Scotland,Multi-ply,110,110,345,365,,,365,150,210,-220,,210,260,280,295,,295,870,SBD,M-O-E
2,Stuart Walls,M,1986-09-10,Scotland,Wraps,106.5,110,255,-265,-265,,255,-180,-185,185,,185,265,-275,-275,,265,705,SBD,M-O
3,Scott Graham #4,M,1998-08-24,Scotland,Raw,104.25,110,-230,230,240,,240,140,150,162.5,,162.5,270,-295,-295,,270,672.5,SBD,M-O
4,David Dornan #1,M,1998-02-01,Scotland,Wraps,110,110,205,215,220,,220,135,142.5,-150,,142.5,220,-240,250,,250,612.5,SBD,M-O
DQ,Colin Baxter,M,1982-11-09,Scotland,Wraps,109.5,110,-280,-290,-300,,,-180,190,200,,200,280,300,-305,,300,,SBD,M-M1
1,Harvey Macaulay,M,1994-01-10,Scotland,Wraps,123.9,125,-305,325,-340,,325,170,180,187.5,,187.5,285,305,320,,320,832.5,SBD,M-O
2,John Sutherland,M,1987-04-18,Scotland,Wraps,121.5,125,270,-282.5,-285,,270,192.5,200,205,,205,240,255,265,,265,740,SBD,M-O
3,Fraser Love,M,1986-08-26,Scotland,Wraps,124.9,125,260,-275,-275,,260,150,160,-167.5,,160,260,280,-290,,280,700,SBD,M-O
4,John Nelson #1,M,1982-04-17,Scotland,Wraps,119.5,125,210,230,-242.5,,230,177.5,190,-195,,190,250,267.5,-280,,267.5,687.5,SBD,M-M1
5,Sam Taha,M,1996-07-17,Scotland,Wraps,120.5,125,230,240,250,,250,140,150,160,,160,230,250,260,,260,670,SBD,M-O
6,John McCutcheon,M,1990-04-11,Scotland,Wraps,116.3,125,190,200,205,,205,125,135,142.5,,142.5,190,205,220,,220,567.5,SBD,M-O
7,Connor McKechnie,M,1998-11-27,Scotland,Wraps,114,125,70,,,,70,170,-180,,,170,320,-350,,,320,560,SBD,M-O
1,Liam Goldie,M,1997-05-11,Scotland,Wraps,131.75,140,270,-280,285,,285,155,162.5,-167.5,,162.5,290,302.5,315,,315,762.5,SBD,M-O
2,William Tait,M,1991-10-25,Scotland,Wraps,134,140,-280,280,,,280,170,,,,170,260,280,,,280,730,SBD,M-O
3,Matthew Mabon,M,2002-05-03,Scotland,Wraps,132.5,140,240,250,260,,260,130,140,150,,150,240,250,260,,260,670,SBD,M-J
1,Kyle Gibson #1,M,1989-02-09,Scotland,Wraps,147.5,140+,370,405.5,,,405.5,200,215,222.5,,222.5,280,300,320,,320,948,SBD,M-O
1,James Ingram,M,1973-10-04,Scotland,Raw,88.75,90,,,,,,122.5,127.5,130,,130,210,225,232.5,,232.5,362.5,BD,M-M3
DQ,Lewis Cheetham,M,1995-08-26,Scotland,Raw,99.55,100,,,,,,-190,,,,,-300,,,,,,BD,M-O
1,Robert Sielicki,M,1964-10-29,England,Raw,81.9,82.5,,,,,,85,90,95,,95,,,,,,95,B,M-M4
1,Mark Griffin,M,1984-10-25,,Raw,98.7,100,,,,,,180,-190,192.5,200,192.5,,,,,,192.5,B,M-O
2,Piotr Stzala,M,1966-11-03,,Raw,98.8,100,,,,,,170,180,-185,,180,,,,,,180,B,M-M4
1,David Thomas #4,M,1951-07-12,England,Raw,107.75,110,,,,,,-110,110,115,,115,,,,,,115,B,M-M7
1,Neil Stewart,M,1976-12-18,Scotland,Raw,115.95,125,,,,,,185,-197.5,,,185,,,,,,185,B,M-M2
2,Davy Cummings,M,1981-06-16,Scotland,Raw,120.65,125,,,,,,-175,180,-192.5,,180,,,,,,180,B,M-M1
1,Alastrair Reid,M,1969-03-02,Scotland,Raw,125.4,140,,,,,,155,162.5,-165,,162.5,,,,,,162.5,B,M-M4
DQ,Nick Whitecross,M,1989-11-15,Scotland,Raw,144.75,140+,,,,,,-280,-280,-280,,,,,,,,,B,M-O
1,Tyler Smith #4,M,2002-09-18,Scotland,Raw,74.75,75,,,,,,,,,,,185,195,205,,205,205,D,M-J
1,Mark Gibson,M,1969-09-21,Scotland,Raw,88.75,90,,,,,,,,,,,210,-233.5,233.5,-240,233.5,233.5,D,M-M3
1,John Pollock #1,M,1976-07-26,Scotland,Multi-ply,117.75,125,,,,,,,,,,,300,320,-340,,320,320,D,M-M2-E
